<?xml version="1.0" encoding="UTF-8" standalone="no"?>
<!-- Created with Inkscape (http://www.inkscape.org/) -->

<svg
   width="210mm"
   height="297mm"
   viewBox="0 0 210 297"
   version="1.1"
   id="svg11273"
   inkscape:version="1.2.2 (b0a8486541, 2022-12-01)"
   sodipodi:docname="design-letter.svg"
   xml:space="preserve"
   inkscape:export-filename="design-letter.pdf"
   inkscape:export-xdpi="96"
   inkscape:export-ydpi="96"
   xmlns:inkscape="http://www.inkscape.org/namespaces/inkscape"
   xmlns:sodipodi="http://sodipodi.sourceforge.net/DTD/sodipodi-0.dtd"
   xmlns="http://www.w3.org/2000/svg"
   xmlns:svg="http://www.w3.org/2000/svg"><sodipodi:namedview
     id="namedview11275"
     pagecolor="#ffffff"
     bordercolor="#000000"
     borderopacity="0.25"
     inkscape:showpageshadow="2"
     inkscape:pageopacity="0.0"
     inkscape:pagecheckerboard="0"
     inkscape:deskcolor="#d1d1d1"
     inkscape:document-units="mm"
     showgrid="false"
     inkscape:zoom="0.5946522"
     inkscape:cx="330.44526"
     inkscape:cy="417.0505"
     inkscape:window-width="1440"
     inkscape:window-height="872"
     inkscape:window-x="1280"
     inkscape:window-y="124"
     inkscape:window-maximized="1"
     inkscape:current-layer="layer1" /><defs
     id="defs11270" /><g
     inkscape:label="Layer 1"
     inkscape:groupmode="layer"
     id="layer1"><rect
       style="fill:none;stroke:#000000;stroke-width:0.644778"
       id="rect11297"
       width="69.205223"
       height="120.00522"
       x="38.322388"
       y="16.82239" /><rect
       style="fill:none;stroke:#000000;stroke-width:0.644778"
       id="rect11297-7"
       width="69.205223"
       height="120.00522"
       x="108.12239"
       y="16.82239" /><g
       id="g11783"
       transform="matrix(1.6666667,0,0,1.6666667,39.000258,17.462985)"><rect
         x="0"
         y="0"
         width="9"
         height="9"
         fill="#ffffff"
         id="rect11756" /><rect
         x="1"
         y="1"
         width="7"
         height="7"
         fill="#000000"
         id="rect11758" /><rect
         x="2"
         y="2"
         width="1"
         height="1"
         fill="#ffffff"
         id="rect11760" /><rect
         x="2"
         y="3"
         width="1"
         height="1"
         fill="#ffffff"
         id="rect11762" /><rect
         x="2"
         y="4"
         width="1"
         height="1"
         fill="#ffffff"
         id="rect11764" /><rect
         x="2"
         y="5"
         width="1"
         height="1"
         fill="#ffffff"
         id="rect11766" /><rect
         x="2"
         y="6"
         width="1"
         height="1"
         fill="#ffffff"
         id="rect11768" /></g><g
       id="g11883"
       transform="matrix(1.6666667,0,0,1.6666667,92.01888,17.247666)"><rect
         x="0"
         y="0"
         width="9"
         height="9"
         fill="#ffffff"
         id="rect11847" /><rect
         x="1"
         y="1"
         width="7"
         height="7"
         fill="#000000"
         id="rect11849" /><rect
         x="2"
         y="2"
         width="1"
         height="1"
         fill="#ffffff"
         id="rect11851" /><rect
         x="2"
         y="3"
         width="1"
         height="1"
         fill="#ffffff"
         id="rect11853" /><rect
         x="2"
         y="4"
         width="1"
         height="1"
         fill="#ffffff"
         id="rect11855" /><rect
         x="2"
         y="5"
         width="1"
         height="1"
         fill="#ffffff"
         id="rect11857" /><rect
         x="2"
         y="6"
         width="1"
         height="1"
         fill="#ffffff"
         id="rect11859" /><rect
         x="4"
         y="6"
         width="1"
         height="1"
         fill="#ffffff"
         id="rect11861" /><rect
         x="5"
         y="6"
         width="1"
         height="1"
         fill="#ffffff"
         id="rect11863" /><rect
         x="6"
         y="6"
         width="1"
         height="1"
         fill="#ffffff"
         id="rect11865" /></g><g
       id="g12045"
       transform="matrix(1.6666667,0,0,1.6666667,92.113399,120.99062)"><rect
         x="0"
         y="0"
         width="9"
         height="9"
         fill="#ffffff"
         id="rect12015" /><rect
         x="1"
         y="1"
         width="7"
         height="7"
         fill="#000000"
         id="rect12017" /><rect
         x="2"
         y="2"
         width="1"
         height="1"
         fill="#ffffff"
         id="rect12019" /><rect
         x="2"
         y="3"
         width="1"
         height="1"
         fill="#ffffff"
         id="rect12021" /><rect
         x="2"
         y="4"
         width="1"
         height="1"
         fill="#ffffff"
         id="rect12023" /><rect
         x="2"
         y="5"
         width="1"
         height="1"
         fill="#ffffff"
         id="rect12025" /><rect
         x="3"
         y="6"
         width="1"
         height="1"
         fill="#ffffff"
         id="rect12027" /><rect
         x="6"
         y="6"
         width="1"
         height="1"
         fill="#ffffff"
         id="rect12029" /></g><g
       id="g12140"
       transform="matrix(1.6666667,0,0,1.6666667,38.811915,121.45656)"><rect
         x="0"
         y="0"
         width="9"
         height="9"
         fill="#ffffff"
         id="rect12107" /><rect
         x="1"
         y="1"
         width="7"
         height="7"
         fill="#000000"
         id="rect12109" /><rect
         x="2"
         y="2"
         width="1"
         height="1"
         fill="#ffffff"
         id="rect12111" /><rect
         x="2"
         y="3"
         width="1"
         height="1"
         fill="#ffffff"
         id="rect12113" /><rect
         x="2"
         y="4"
         width="1"
         height="1"
         fill="#ffffff"
         id="rect12115" /><rect
         x="2"
         y="5"
         width="1"
         height="1"
         fill="#ffffff"
         id="rect12117" /><rect
         x="3"
         y="6"
         width="1"
         height="1"
         fill="#ffffff"
         id="rect12119" /><rect
         x="4"
         y="6"
         width="1"
         height="1"
         fill="#ffffff"
         id="rect12121" /><rect
         x="5"
         y="6"
         width="1"
         height="1"
         fill="#ffffff"
         id="rect12123" /></g><g
       id="g12268"
       transform="matrix(1.6666667,0,0,1.6666667,108.8897,17.183256)"><rect
         x="0"
         y="0"
         width="9"
         height="9"
         fill="#ffffff"
         id="rect12232" /><rect
         x="1"
         y="1"
         width="7"
         height="7"
         fill="#000000"
         id="rect12234" /><rect
         x="2"
         y="2"
         width="1"
         height="1"
         fill="#ffffff"
         id="rect12236" /><rect
         x="2"
         y="3"
         width="1"
         height="1"
         fill="#ffffff"
         id="rect12238" /><rect
         x="2"
         y="4"
         width="1"
         height="1"
         fill="#ffffff"
         id="rect12240" /><rect
         x="2"
         y="5"
         width="1"
         height="1"
         fill="#ffffff"
         id="rect12242" /><rect
         x="4"
         y="5"
         width="1"
         height="1"
         fill="#ffffff"
         id="rect12244" /><rect
         x="5"
         y="5"
         width="1"
         height="1"
         fill="#ffffff"
         id="rect12246" /><rect
         x="6"
         y="5"
         width="1"
         height="1"
         fill="#ffffff"
         id="rect12248" /><rect
         x="2"
         y="6"
         width="1"
         height="1"
         fill="#ffffff"
         id="rect12250" /></g><g
       id="g12383"
       transform="matrix(1.6666667,0,0,1.6666667,162.0795,17.558048)"><rect
         x="0"
         y="0"
         width="9"
         height="9"
         fill="#ffffff"
         id="rect12338" /><rect
         x="1"
         y="1"
         width="7"
         height="7"
         fill="#000000"
         id="rect12340" /><rect
         x="2"
         y="2"
         width="1"
         height="1"
         fill="#ffffff"
         id="rect12342" /><rect
         x="2"
         y="3"
         width="1"
         height="1"
         fill="#ffffff"
         id="rect12344" /><rect
         x="2"
         y="4"
         width="1"
         height="1"
         fill="#ffffff"
         id="rect12346" /><rect
         x="2"
         y="5"
         width="1"
         height="1"
         fill="#ffffff"
         id="rect12348" /><rect
         x="4"
         y="5"
         width="1"
         height="1"
         fill="#ffffff"
         id="rect12350" /><rect
         x="5"
         y="5"
         width="1"
         height="1"
         fill="#ffffff"
         id="rect12352" /><rect
         x="6"
         y="5"
         width="1"
         height="1"
         fill="#ffffff"
         id="rect12354" /><rect
         x="2"
         y="6"
         width="1"
         height="1"
         fill="#ffffff"
         id="rect12356" /><rect
         x="4"
         y="6"
         width="1"
         height="1"
         fill="#ffffff"
         id="rect12358" /><rect
         x="5"
         y="6"
         width="1"
         height="1"
         fill="#ffffff"
         id="rect12360" /><rect
         x="6"
         y="6"
         width="1"
         height="1"
         fill="#ffffff"
         id="rect12362" /></g><g
       id="g12488"
       transform="matrix(1.6666667,0,0,1.6666667,161.50817,121.29424)"><rect
         x="0"
         y="0"
         width="9"
         height="9"
         fill="#ffffff"
         id="rect12449" /><rect
         x="1"
         y="1"
         width="7"
         height="7"
         fill="#000000"
         id="rect12451" /><rect
         x="2"
         y="2"
         width="1"
         height="1"
         fill="#ffffff"
         id="rect12453" /><rect
         x="2"
         y="3"
         width="1"
         height="1"
         fill="#ffffff"
         id="rect12455" /><rect
         x="2"
         y="4"
         width="1"
         height="1"
         fill="#ffffff"
         id="rect12457" /><rect
         x="2"
         y="5"
         width="1"
         height="1"
         fill="#ffffff"
         id="rect12459" /><rect
         x="4"
         y="5"
         width="1"
         height="1"
         fill="#ffffff"
         id="rect12461" /><rect
         x="5"
         y="5"
         width="1"
         height="1"
         fill="#ffffff"
         id="rect12463" /><rect
         x="6"
         y="5"
         width="1"
         height="1"
         fill="#ffffff"
         id="rect12465" /><rect
         x="3"
         y="6"
         width="1"
         height="1"
         fill="#ffffff"
         id="rect12467" /><rect
         x="6"
         y="6"
         width="1"
         height="1"
         fill="#ffffff"
         id="rect12469" /></g><g
       id="g12598"
       transform="matrix(1.6666667,0,0,1.6666667,108.49747,121.4035)"><rect
         x="0"
         y="0"
         width="9"
         height="9"
         fill="#ffffff"
         id="rect12556" /><rect
         x="1"
         y="1"
         width="7"
         height="7"
         fill="#000000"
         id="rect12558" /><rect
         x="2"
         y="2"
         width="1"
         height="1"
         fill="#ffffff"
         id="rect12560" /><rect
         x="2"
         y="3"
         width="1"
         height="1"
         fill="#ffffff"
         id="rect12562" /><rect
         x="2"
         y="4"
         width="1"
         height="1"
         fill="#ffffff"
         id="rect12564" /><rect
         x="2"
         y="5"
         width="1"
         height="1"
         fill="#ffffff"
         id="rect12566" /><rect
         x="4"
         y="5"
         width="1"
         height="1"
         fill="#ffffff"
         id="rect12568" /><rect
         x="5"
         y="5"
         width="1"
         height="1"
         fill="#ffffff"
         id="rect12570" /><rect
         x="6"
         y="5"
         width="1"
         height="1"
         fill="#ffffff"
         id="rect12572" /><rect
         x="3"
         y="6"
         width="1"
         height="1"
         fill="#ffffff"
         id="rect12574" /><rect
         x="4"
         y="6"
         width="1"
         height="1"
         fill="#ffffff"
         id="rect12576" /><rect
         x="5"
         y="6"
         width="1"
         height="1"
         fill="#ffffff"
         id="rect12578" /></g><text
       xml:space="preserve"
       style="font-size:115.711px;text-align:center;text-anchor:middle;fill:none;stroke:#000000;stroke-width:0.264583"
       x="72.611732"
       y="120.94836"
       id="text12602"><tspan
         sodipodi:role="line"
         id="tspan12600"
         style="font-style:normal;font-variant:normal;font-weight:normal;font-stretch:normal;font-size:115.711px;font-family:'DejaVu Sans Mono';-inkscape-font-specification:'DejaVu Sans Mono';text-align:center;text-anchor:middle;stroke-width:0.264583"
         x="72.611732"
         y="120.94836">🃠</tspan></text><text
       xml:space="preserve"
       style="font-size:105.833px;text-align:center;text-anchor:middle;fill:none;stroke:#000000;stroke-width:0.264583"
       x="137.22974"
       y="63.038021"
       id="text12606"><tspan
         sodipodi:role="line"
         id="tspan12604"
         style="stroke-width:0.264583"></tspan></text><text
       xml:space="preserve"
       style="font-size:76.2px;text-align:center;text-anchor:middle;fill:none;stroke:#000000;stroke-width:0.264583"
       x="142.51221"
       y="103.04034"
       id="text12614"><tspan
         sodipodi:role="line"
         id="tspan12612"
         style="font-style:normal;font-variant:normal;font-weight:normal;font-stretch:normal;font-size:76.2px;font-family:'DejaVu Sans Mono';-inkscape-font-specification:'DejaVu Sans Mono';stroke-width:0.264583"
         x="142.51221"
         y="103.04034">🂠</tspan></text></g><g
     inkscape:groupmode="layer"
     id="layer2"
     inkscape:label="repere"><rect
       style="fill:none;stroke:#000000;stroke-width:0.0303286"
       id="rect11388"
       width="0.069671407"
       height="139.66968"
       x="107.76014"
       y="0.015164284" /><rect
       style="fill:none;stroke:#000000;stroke-width:0.101602"
       id="rect11390"
       width="215.7984"
       height="0.15239826"
       x="-0.15422106"
       y="137.67113" /></g></svg>
